[
    {
        "command":"thot",
        "prefix":"!",
        "scope":"global",
        "default":"on",
        "description":"Posts a random thot."
    },
    {
        "command":"channelname <newname>",
        "prefix":"!",
        "scope":"global",
        "default":"on",
        "description":"Change channel name."
    },
    {
        "command":"addtwitch <username>",
        "prefix":"!",
        "scope":"global",
        "default":"on",
        "description":"Add to the list of streams the bot will announce go live. "
    },
    {
        "command":"deltwitch <username>",
        "prefix":"!",
        "scope":"global",
        "default":"on",
        "description":"Remove from the list of streams the bot will announce go live. "
    },
    {
        "command":"addmixer <username>",
        "prefix":"!",
        "scope":"global",
        "default":"on",
        "description":"Add to the list of streams the bot will announce go live. "
    },
    {
        "command":"delmixer <username>",
        "prefix":"!",
        "scope":"global",
        "default":"on",
        "description":"Remove from the list of streams the bot will announce go live. "
    },
    {
        "command":"davename <name>",
        "prefix":"1",
        "scope":"global",
        "default":"on",
        "description":"Changes 'daves' server nickname"
    }
]